Homework Assignment: Sentiment Analysis of Emma -ar1871a
…
#1 

#nrc
get_sentiments("nrc") |>
  filter(sentiment == "joy") ->
nrcjoy

tidy_books |>
  inner_join(nrcjoy, by = "word") |>
  count(word, sort = TRUE)

# A tibble: 448 × 2
   word          n
   <chr>     <int>
 1 good       1380
 2 hope        601
 3 friend      593
 4 mother      541
 5 happy       534
 6 love        495
 7 found       469
 8 present     422
 9 kind        376
10 happiness   369
# ℹ 438 more rows
…
